%!PS-Adobe-2.0 EPSF-2.0
%%Title: EnergyFig.fig
%%Creator: fig2dev Version 3.2 Patchlevel 4
%%CreationDate: Fri Apr 10 13:00:55 2009
%%For: klaus@Klaus-Bartschats-Computer-2.local (Klaus Bartschat)
%%BoundingBox: 0 0 907 619
%%Magnification: 1.0000
%%EndComments
/$F2psDict 200 dict def
$F2psDict begin
$F2psDict /mtrx matrix put
/col-1 {0 setgray} bind def
/col0 {0.000 0.000 0.000 srgb} bind def
/col1 {0.000 0.000 1.000 srgb} bind def
/col2 {0.000 1.000 0.000 srgb} bind def
/col3 {0.000 1.000 1.000 srgb} bind def
/col4 {1.000 0.000 0.000 srgb} bind def
/col5 {1.000 0.000 1.000 srgb} bind def
/col6 {1.000 1.000 0.000 srgb} bind def
/col7 {1.000 1.000 1.000 srgb} bind def
/col8 {0.000 0.000 0.560 srgb} bind def
/col9 {0.000 0.000 0.690 srgb} bind def
/col10 {0.000 0.000 0.820 srgb} bind def
/col11 {0.530 0.810 1.000 srgb} bind def
/col12 {0.000 0.560 0.000 srgb} bind def
/col13 {0.000 0.690 0.000 srgb} bind def
/col14 {0.000 0.820 0.000 srgb} bind def
/col15 {0.000 0.560 0.560 srgb} bind def
/col16 {0.000 0.690 0.690 srgb} bind def
/col17 {0.000 0.820 0.820 srgb} bind def
/col18 {0.560 0.000 0.000 srgb} bind def
/col19 {0.690 0.000 0.000 srgb} bind def
/col20 {0.820 0.000 0.000 srgb} bind def
/col21 {0.560 0.000 0.560 srgb} bind def
/col22 {0.690 0.000 0.690 srgb} bind def
/col23 {0.820 0.000 0.820 srgb} bind def
/col24 {0.500 0.190 0.000 srgb} bind def
/col25 {0.630 0.250 0.000 srgb} bind def
/col26 {0.750 0.380 0.000 srgb} bind def
/col27 {1.000 0.500 0.500 srgb} bind def
/col28 {1.000 0.630 0.630 srgb} bind def
/col29 {1.000 0.750 0.750 srgb} bind def
/col30 {1.000 0.880 0.880 srgb} bind def
/col31 {1.000 0.840 0.000 srgb} bind def

end
save
newpath 0 619 moveto 0 0 lineto 907 0 lineto 907 619 lineto closepath clip newpath
11.3 445.6 translate
1 -1 scale

/cp {closepath} bind def
/ef {eofill} bind def
/gr {grestore} bind def
/gs {gsave} bind def
/sa {save} bind def
/rs {restore} bind def
/l {lineto} bind def
/m {moveto} bind def
/rm {rmoveto} bind def
/n {newpath} bind def
/s {stroke} bind def
/sh {show} bind def
/slc {setlinecap} bind def
/slj {setlinejoin} bind def
/slw {setlinewidth} bind def
/srgb {setrgbcolor} bind def
/rot {rotate} bind def
/sc {scale} bind def
/sd {setdash} bind def
/ff {findfont} bind def
/sf {setfont} bind def
/scf {scalefont} bind def
/sw {stringwidth} bind def
/tr {translate} bind def
/tnt {dup dup currentrgbcolor
  4 -2 roll dup 1 exch sub 3 -1 roll mul add
  4 -2 roll dup 1 exch sub 3 -1 roll mul add
  4 -2 roll dup 1 exch sub 3 -1 roll mul add srgb}
  bind def
/shd {dup dup currentrgbcolor 4 -2 roll mul 4 -2 roll mul
  4 -2 roll mul srgb} bind def
/reencdict 12 dict def /ReEncode { reencdict begin
/newcodesandnames exch def /newfontname exch def /basefontname exch def
/basefontdict basefontname findfont def /newfont basefontdict maxlength dict def
basefontdict { exch dup /FID ne { dup /Encoding eq
{ exch dup length array copy newfont 3 1 roll put }
{ exch newfont 3 1 roll put } ifelse } { pop pop } ifelse } forall
newfont /FontName newfontname put newcodesandnames aload pop
128 1 255 { newfont /Encoding get exch /.notdef put } for
newcodesandnames length 2 idiv { newfont /Encoding get 3 1 roll put } repeat
newfontname newfont definefont pop end } def
/isovec [
8#055 /minus 8#200 /grave 8#201 /acute 8#202 /circumflex 8#203 /tilde
8#204 /macron 8#205 /breve 8#206 /dotaccent 8#207 /dieresis
8#210 /ring 8#211 /cedilla 8#212 /hungarumlaut 8#213 /ogonek 8#214 /caron
8#220 /dotlessi 8#230 /oe 8#231 /OE
8#240 /space 8#241 /exclamdown 8#242 /cent 8#243 /sterling
8#244 /currency 8#245 /yen 8#246 /brokenbar 8#247 /section 8#250 /dieresis
8#251 /copyright 8#252 /ordfeminine 8#253 /guillemotleft 8#254 /logicalnot
8#255 /hyphen 8#256 /registered 8#257 /macron 8#260 /degree 8#261 /plusminus
8#262 /twosuperior 8#263 /threesuperior 8#264 /acute 8#265 /mu 8#266 /paragraph
8#267 /periodcentered 8#270 /cedilla 8#271 /onesuperior 8#272 /ordmasculine
8#273 /guillemotright 8#274 /onequarter 8#275 /onehalf
8#276 /threequarters 8#277 /questiondown 8#300 /Agrave 8#301 /Aacute
8#302 /Acircumflex 8#303 /Atilde 8#304 /Adieresis 8#305 /Aring
8#306 /AE 8#307 /Ccedilla 8#310 /Egrave 8#311 /Eacute
8#312 /Ecircumflex 8#313 /Edieresis 8#314 /Igrave 8#315 /Iacute
8#316 /Icircumflex 8#317 /Idieresis 8#320 /Eth 8#321 /Ntilde 8#322 /Ograve
8#323 /Oacute 8#324 /Ocircumflex 8#325 /Otilde 8#326 /Odieresis 8#327 /multiply
8#330 /Oslash 8#331 /Ugrave 8#332 /Uacute 8#333 /Ucircumflex
8#334 /Udieresis 8#335 /Yacute 8#336 /Thorn 8#337 /germandbls 8#340 /agrave
8#341 /aacute 8#342 /acircumflex 8#343 /atilde 8#344 /adieresis 8#345 /aring
8#346 /ae 8#347 /ccedilla 8#350 /egrave 8#351 /eacute
8#352 /ecircumflex 8#353 /edieresis 8#354 /igrave 8#355 /iacute
8#356 /icircumflex 8#357 /idieresis 8#360 /eth 8#361 /ntilde 8#362 /ograve
8#363 /oacute 8#364 /ocircumflex 8#365 /otilde 8#366 /odieresis 8#367 /divide
8#370 /oslash 8#371 /ugrave 8#372 /uacute 8#373 /ucircumflex
8#374 /udieresis 8#375 /yacute 8#376 /thorn 8#377 /ydieresis] def
/Times-Roman /Times-Roman-iso isovec ReEncode
/Times-Bold /Times-Bold-iso isovec ReEncode
/$F2psBegin {$F2psDict begin /$F2psEnteredState save def} def
/$F2psEnd {$F2psEnteredState restore end} def

$F2psBegin
10 setmiterlimit
0 slj 0 slc
 0.06299 0.06299 sc
%
% Fig objects follow
%
% 
% here starts figure with depth 50
% Polyline
30.000 slw
n 2070 1530 m
 2745 1530 l gs col0 s gr 
% Polyline
n 2070 675 m
 2745 675 l gs col0 s gr 
% Polyline
7.500 slw
n 1440 6120 m
 1530 6120 l gs col0 s gr 
% Polyline
n 1395 1530 m
 1575 1530 l gs col0 s gr 
% Polyline
n 1395 675 m
 1530 675 l gs col0 s gr 
% Polyline
n 1440 360 m
 1530 360 l gs col0 s gr 
% Polyline
30.000 slw
n 2970 1530 m
 3690 1530 l gs col0 s gr 
% Polyline
n 2925 360 m
 3645 360 l gs col0 s gr 
% Polyline
n 3825 360 m
 4545 360 l gs col0 s gr 
% Polyline
n 2070 6120 m
 2745 6120 l gs col0 s gr 
% Polyline
n 4725 360 m
 5445 360 l gs col0 s gr 
% Polyline
60.000 slw
gs  clippath
5201 4029 m 5110 3910 l 4756 4179 l 5041 4057 l 4847 4298 l cp
eoclip
n 4199 4699 m
 5144 3979 l gs col4 s gr gr

% arrowhead
n 4847 4298 m 5041 4057 l 4756 4179 l 4847 4298 l  cp gs col4 1.00 shd ef gr  col4 s
% Polyline
gs  clippath
6152 3317 m 6061 3198 l 5707 3467 l 5992 3345 l 5798 3586 l cp
eoclip
n 5150 3987 m
 6095 3267 l gs col4 s gr gr

% arrowhead
n 5798 3586 m 5992 3345 l 5707 3467 l 5798 3586 l  cp gs col4 1.00 shd ef gr  col4 s
% Polyline
gs  clippath
7052 2597 m 6961 2478 l 6607 2747 l 6892 2625 l 6698 2866 l cp
eoclip
n 6050 3267 m
 6995 2547 l gs col4 s gr gr

% arrowhead
n 6698 2866 m 6892 2625 l 6607 2747 l 6698 2866 l  cp gs col4 1.00 shd ef gr  col4 s
% Polyline
gs  clippath
7964 1892 m 7873 1773 l 7519 2042 l 7804 1920 l 7610 2161 l cp
eoclip
n 6962 2562 m
 7907 1842 l gs col4 s gr gr

% arrowhead
n 7610 2161 m 7804 1920 l 7519 2042 l 7610 2161 l  cp gs col4 1.00 shd ef gr  col4 s
% Polyline
gs  clippath
8909 1172 m 8818 1053 l 8464 1322 l 8749 1200 l 8555 1441 l cp
eoclip
n 7907 1842 m
 8852 1122 l gs col4 s gr gr

% arrowhead
n 8555 1441 m 8749 1200 l 8464 1322 l 8555 1441 l  cp gs col4 1.00 shd ef gr  col4 s
% Polyline
gs  clippath
9854 452 m 9763 333 l 9409 602 l 9694 480 l 9500 721 l cp
eoclip
n 8852 1122 m
 9797 402 l gs col4 s gr gr

% arrowhead
n 9500 721 m 9694 480 l 9409 602 l 9500 721 l  cp gs col4 1.00 shd ef gr  col4 s
% Polyline
gs  clippath
3356 5469 m 3265 5350 l 2911 5619 l 3196 5497 l 3002 5738 l cp
eoclip
n 2354 6139 m
 3299 5419 l gs col4 s gr gr

% arrowhead
n 3002 5738 m 3196 5497 l 2911 5619 l 3002 5738 l  cp gs col4 1.00 shd ef gr  col4 s
% Polyline
gs  clippath
4261 4756 m 4170 4637 l 3816 4906 l 4101 4784 l 3907 5025 l cp
eoclip
n 3259 5426 m
 4204 4706 l gs col4 s gr gr

% arrowhead
n 3907 5025 m 4101 4784 l 3816 4906 l 3907 5025 l  cp gs col4 1.00 shd ef gr  col4 s
% Polyline
gs  clippath
10767 -249 m 10676 -368 l 10322 -98 l 10607 -221 l 10413 20 l cp
eoclip
n 9765 420 m
 10710 -300 l gs col4 s gr gr

% arrowhead
n 10413 20 m 10607 -221 l 10322 -98 l 10413 20 l  cp gs col4 1.00 shd ef gr  col4 s
% Polyline
gs  clippath
3363 -717 m 3214 -738 l 3153 -297 l 3269 -584 l 3301 -276 l cp
eoclip
n 2342 6082 m
 3287 -713 l gs col1 s gr gr

% arrowhead
n 3301 -276 m 3269 -584 l 3153 -297 l 3301 -276 l  cp gs col1 1.00 shd ef gr  col1 s
% Polyline
30.000 slw
n 2925 675 m
 3645 675 l gs col0 s gr 
% Polyline
n 2070 360 m
 2745 360 l gs col0 s gr 
% Polyline
60.000 slw
gs  clippath
2372 4730 m 2281 4849 l 2635 5118 l 2442 4877 l 2726 4999 l cp
eoclip
n 3284 5519 m
 2339 4799 l gs col4 s gr gr

% arrowhead
n 2726 4999 m 2442 4877 l 2635 5118 l 2726 4999 l  cp gs col4 1.00 shd ef gr  col4 s
% Polyline
gs  clippath
3379 4136 m 3288 4017 l 2934 4286 l 3219 4164 l 3025 4405 l cp
eoclip
n 2377 4806 m
 3322 4086 l gs col4 s gr gr

% arrowhead
n 3025 4405 m 3219 4164 l 2934 4286 l 3025 4405 l  cp gs col4 1.00 shd ef gr  col4 s
% Polyline
gs  clippath
2400 3312 m 2309 3431 l 2663 3700 l 2470 3459 l 2754 3581 l cp
eoclip
n 3312 4101 m
 2367 3381 l gs col4 s gr gr

% arrowhead
n 2754 3581 m 2470 3459 l 2663 3700 l 2754 3581 l  cp gs col4 1.00 shd ef gr  col4 s
% Polyline
gs  clippath
3391 2710 m 3300 2591 l 2946 2860 l 3231 2738 l 3037 2979 l cp
eoclip
n 2389 3380 m
 3334 2660 l gs col4 s gr gr

% arrowhead
n 3037 2979 m 3231 2738 l 2946 2860 l 3037 2979 l  cp gs col4 1.00 shd ef gr  col4 s
% Polyline
gs  clippath
4325 2020 m 4234 1901 l 3880 2170 l 4165 2048 l 3971 2289 l cp
eoclip
n 3323 2690 m
 4268 1970 l gs col4 s gr gr

% arrowhead
n 3971 2289 m 4165 2048 l 3880 2170 l 3971 2289 l  cp gs col4 1.00 shd ef gr  col4 s
% Polyline
gs  clippath
6208 586 m 6117 467 l 5763 736 l 6048 614 l 5854 855 l cp
eoclip
n 5206 1256 m
 6151 536 l gs col4 s gr gr

% arrowhead
n 5854 855 m 6048 614 l 5763 736 l 5854 855 l  cp gs col4 1.00 shd ef gr  col4 s
% Polyline
gs  clippath
7158 -126 m 7067 -245 l 6713 24 l 6998 -98 l 6804 143 l cp
eoclip
n 6156 543 m
 7101 -177 l gs col4 s gr gr

% arrowhead
n 6804 143 m 6998 -98 l 6713 24 l 6804 143 l  cp gs col4 1.00 shd ef gr  col4 s
% Polyline
gs  clippath
5296 1291 m 5205 1172 l 4851 1441 l 5136 1319 l 4942 1560 l cp
eoclip
n 4294 1961 m
 5239 1241 l gs col4 s gr gr

% arrowhead
n 4942 1560 m 5136 1319 l 4851 1441 l 4942 1560 l  cp gs col4 1.00 shd ef gr  col4 s
% Polyline
gs  clippath
3350 1235 m 3259 1354 l 3613 1623 l 3420 1382 l 3704 1504 l cp
eoclip
n 4262 2024 m
 3317 1304 l gs col4 s gr gr

% arrowhead
n 3704 1504 m 3420 1382 l 3613 1623 l 3704 1504 l  cp gs col4 1.00 shd ef gr  col4 s
% Polyline
gs  clippath
2445 509 m 2354 628 l 2708 897 l 2515 656 l 2799 778 l cp
eoclip
n 3357 1298 m
 2412 578 l gs col4 s gr gr

% arrowhead
n 2799 778 m 2515 656 l 2708 897 l 2799 778 l  cp gs col4 1.00 shd ef gr  col4 s
% Polyline
gs  clippath
3425 -94 m 3334 -213 l 2980 56 l 3265 -66 l 3071 175 l cp
eoclip
n 2423 575 m
 3368 -145 l gs col4 s gr gr

% arrowhead
n 3071 175 m 3265 -66 l 2980 56 l 3071 175 l  cp gs col4 1.00 shd ef gr  col4 s
% Polyline
gs  clippath
6078 1828 m 5987 1947 l 6341 2216 l 6148 1975 l 6432 2097 l cp
eoclip
n 6990 2617 m
 6045 1897 l gs col4 s gr gr

% arrowhead
n 6432 2097 m 6148 1975 l 6341 2216 l 6432 2097 l  cp gs col4 1.00 shd ef gr  col4 s
% Polyline
gs  clippath
8119 -825 m 8028 -944 l 7674 -674 l 7959 -797 l 7765 -555 l cp
eoclip
n 7117 -156 m
 8062 -876 l gs col12 s gr gr

% arrowhead
n 7765 -555 m 7959 -797 l 7674 -674 l 7765 -555 l  cp gs col12 1.00 shd ef gr  col12 s
% Polyline
gs  clippath
9092 -1553 m 9001 -1672 l 8647 -1402 l 8932 -1525 l 8738 -1283 l cp
eoclip
n 8090 -884 m
 9035 -1604 l gs col12 s gr gr

% arrowhead
n 8738 -1283 m 8932 -1525 l 8647 -1402 l 8738 -1283 l  cp gs col12 1.00 shd ef gr  col12 s
% Polyline
gs  clippath
1545 -735 m 1425 -735 l 1425 -446 l 1485 -686 l 1545 -446 l cp
eoclip
n 1485 7020 m
 1485 -720 l gs col0 s gr gr

% arrowhead
15.000 slw
n 1545 -446 m 1485 -686 l 1425 -446 l  col0 s
% Polyline
60.000 slw
gs  clippath
11310 60 m 11310 -60 l 11022 -60 l 11262 0 l 11022 60 l cp
eoclip
n 720 0 m
 11295 0 l gs col0 s gr gr

% arrowhead
15.000 slw
n 11022 60 m 11262 0 l 11022 -60 l  col0 s
% Polyline
60.000 slw
n 6840 3960 m
 8280 3960 l gs col1 s gr 
% Polyline
n 6885 5490 m
 8325 5490 l gs col12 s gr 
% Polyline
n 6840 4725 m 8190 4725 l
 8235 4725 l gs col4 s gr 
% Polyline
gs  clippath
5162 1128 m 5071 1247 l 5425 1516 l 5232 1275 l 5516 1397 l cp
eoclip
n 6074 1917 m
 5129 1197 l gs col4 s gr gr

% arrowhead
n 5516 1397 m 5232 1275 l 5425 1516 l 5516 1397 l  cp gs col4 1.00 shd ef gr  col4 s
% Polyline
gs  clippath
7918 393 m 7827 512 l 8181 781 l 7988 540 l 8272 662 l cp
eoclip
n 8830 1182 m
 7885 462 l gs col4 s gr gr

% arrowhead
n 8272 662 m 7988 540 l 8181 781 l 8272 662 l  cp gs col4 1.00 shd ef gr  col4 s
% Polyline
gs  clippath
8929 -196 m 8838 -315 l 8484 -45 l 8769 -168 l 8575 73 l cp
eoclip
n 7927 473 m
 8872 -247 l gs col4 s gr gr

% arrowhead
n 8575 73 m 8769 -168 l 8484 -45 l 8575 73 l  cp gs col4 1.00 shd ef gr  col4 s
% Polyline
gs  clippath
9834 -894 m 9743 -1013 l 9389 -743 l 9674 -866 l 9480 -624 l cp
eoclip
n 8832 -225 m
 9777 -945 l gs col12 s gr gr

% arrowhead
n 9480 -624 m 9674 -866 l 9389 -743 l 9480 -624 l  cp gs col12 1.00 shd ef gr  col12 s
% Polyline
gs  clippath
4376 -821 m 4285 -940 l 3931 -670 l 4216 -793 l 4022 -551 l cp
eoclip
n 3374 -152 m
 4319 -872 l gs col12 s gr gr

% arrowhead
n 4022 -551 m 4216 -793 l 3931 -670 l 4022 -551 l  cp gs col12 1.00 shd ef gr  col12 s
% Polyline
gs  clippath
3434 -1651 m 3343 -1532 l 3697 -1262 l 3504 -1504 l 3788 -1381 l cp
eoclip
n 4346 -863 m
 3401 -1583 l gs col12 s gr gr

% arrowhead
n 3788 -1381 m 3504 -1504 l 3697 -1262 l 3788 -1381 l  cp gs col12 1.00 shd ef gr  col12 s
/Times-Roman-iso ff 450.00 scf sf
405 900 m
gs 1 -1 sc (-1.51) col0 sh gr
/Times-Roman-iso ff 450.00 scf sf
360 6300 m
gs 1 -1 sc (-13.6) col0 sh gr
/Times-Roman-iso ff 450.00 scf sf
2115 6570 m
gs 1 -1 sc (1s) col0 sh gr
/Times-Roman-iso ff 450.00 scf sf
2205 1980 m
gs 1 -1 sc (2s) col0 sh gr
/Times-Roman-iso ff 450.00 scf sf
3060 1935 m
gs 1 -1 sc (2p) col0 sh gr
/Times-Roman-iso ff 450.00 scf sf
2205 1080 m
gs 1 -1 sc (3s) col0 sh gr
/Times-Roman-iso ff 450.00 scf sf
3105 1080 m
gs 1 -1 sc (3p) col0 sh gr
/Times-Roman-iso ff 450.00 scf sf
3915 1125 m
gs 1 -1 sc (3d) col0 sh gr
/Times-Roman-iso ff 450.00 scf sf
405 495 m
gs 1 -1 sc (-0.85) col0 sh gr
/Times-Roman-iso ff 450.00 scf sf
540 1665 m
gs 1 -1 sc (-3.4) col0 sh gr
/Times-Roman-iso ff 450.00 scf sf
270 -1395 m
gs 1 -1 sc (Energy) col0 sh gr
/Times-Roman-iso ff 450.00 scf sf
1665 -1395 m
gs 1 -1 sc (\(eV\)) col0 sh gr
/Times-Roman-iso ff 450.00 scf sf
8550 4095 m
gs 1 -1 sc (Photoelectric Effect) col0 sh gr
/Times-Roman-iso ff 450.00 scf sf
8550 5580 m
gs 1 -1 sc (Above-Threshold Ionization) col0 sh gr
/Times-Roman-iso ff 450.00 scf sf
8550 4815 m
gs 1 -1 sc (Multi-photon Ionization) col0 sh gr
% Polyline
30.000 slw
n 3825 675 m
 4545 675 l gs col0 s gr 
% here ends figure;
$F2psEnd
rs
showpage
