set term pslatex color 
set out 'fourier_350_7_26_7.tex'
set ylabel 'Intensity a.u.' offset -1.0,0.0
set xlabel '$E$ [atomic units]' offset 0.0,-0.5
set format y '%3.1f'
set mytics 10
#set yr [0:1]
set log y
#set ytics 0.2
set mytics 10
set yr [0.02:100]
set xr [0.0:0.7]
#set xtics 0.05
set mxtics 5
#set format x '%4.2f'
set nolabel
set title '\textbf{???}' 
set key top right spacing 2.2
#set nokey
plot datadir . '/Pulse_s-s_7-26-7-350/fieldFT.out' u 2:5 t '\tt S-S' w l lt 1 lc 3 lw 2,\
     datadir . '/Pulse_t-t_7-26-7-350/fieldFT.out' u 2:5 t '\tt L-L' w l lt 1 lc 1 lw 2

#plot datadir . '/Pulse_g-g_7-26-7-350/fieldFT.out' u 2:5 t '\tt G-G' w l lt 1 lc 1 lw 2,\
#     datadir . '/Pulse_s-s_7-26-7-350/fieldFT.out' u 2:5 t '\tt S-S' w l lt 1 lc rgb "#009900" lw 2,\
#     datadir . '/Pulse_t-t_7-26-7-350/fieldFT.out' u 2:5 t '\tt L-L' w l lt 1 lc 3 lw 2