set term pslatex color 
set out 'spectrum_350_2_36_2_midin.tex'
set ylabel '$dP/dE$ [a.u.]' offset -1.0,0.0
set xlabel '$E$ [a.u.]' offset 0.0,-0.5
set format y '%6.2f'
set mytics 10
#set yr [0:1.2]
#set ytics 0.2
#et mytics 4
set log y
set yr [0.0015:100]
set xr [0.1:0.4]
set xtics 0.05
set mxtics 5
set format x '%4.2f'
set nolabel
#set label '$1 \times 10^{14}\,$W/cm$^2$' at 1200,0.1
set title '\textbf{2-36-2~~~~$\mathbf{1.0 \times 10^{14}\,}$W/cm$^2$~~~0.350 a.u.}' 
set key top right spacing 2.2
#set nokey
plot datadir . '/S-s__2-36-2__0.5338d-1__0350/betas.out' u 1:2 t '\tt S-S' w l lt 1 lc 3 lw 2,\
     datadir . '/T-t__2-36-2__0.5338d-1__0350/betas.out' u 1:2 t '\tt L-L' sm cs w l lt 1 lc 1 lw 2